…
## Assessment
---

### a) If you were to only consider the provider’s effectiveness with regard to this particular treatment, would you recommend reaching out to any of these doctors in particular? If so, which ones, and why?

To evaluate the doctor/physician's performance, I first collect the information about their average success rate. Since the risk score and sex are possible factors that affect the success rate, I also include the average risk assessment scores of the patients and the percentage of female
patients.

~~~ r
> doc_success_rate <- clvr_table %>% group_by(servicing_provider_id) %>% summarise(success_rate = sum(outcome==1)/n(), num_of_cases = n(), avg_risk_assessment = (mean(health_risk_assesment)), percentage_of_females_administered = round(100 * (sum(member_sex==0) / n())))  %>%  arrange(avg_risk_assessment)
> doc_success_rate
# A tibble: 96 × 5
   servicing_provider_id success_rate num_of_cases avg_risk_assessment percentage_of_females_administered
                  <fctr>        <dbl>        <int>               <dbl>                              <dbl>
1                     65    0.6279070           43            4.418605                                 37
2                     60    0.4651163           43            4.441860                                 58
3                     79    0.5957447           47            4.553191                                 43
4                     84    0.5744681           47            4.553191                                 53
5                     10    0.3939394           33            4.606061                                 39
6                     34    0.4545455           44            4.613636                                 66
7                     90    0.4528302           53            4.641509                                 42
8                     24    0.5000000           42            4.642857                                 50
9                     86    0.4333333           30            4.700000                                 70
10                    96    0.5098039           51            4.745098                                 57
# ... with 86 more rows
…
