…
Now, the rows should be unique for each *attributed_to* id and *date-time*. But this wasn't true for few rows. On exploring that data
I noticed that it was the sources that was different. In all of these rows, the source for a given user id and time was either set
to a source or empty(NA). I think it is safe to remove the rows with empty source values.

~~~ r
> duplicate_rows <- grly_table%>% group_by(attributed_to, date_time) %>% filter(n() > 1)
>
> duplicate_rows
Source: local data frame [56 x 5]
Groups: attributed_to, date_time [28]

   attributed_to           date_time used_first_time_today first_utm_source       date
          <fctr>              <dttm>                 <lgl>           <fctr>     <date>
1   u:2119542499 2016-02-01 13:19:00                 FALSE               NA 2016-02-01
2   u:2119542499 2016-02-01 13:19:00                 FALSE           brand1 2016-02-01
3   u:-913070131 2016-02-03 00:53:00                 FALSE               NA 2016-02-03
4   u:-913070131 2016-02-03 00:53:00                 FALSE           brand1 2016-02-03
5   u:-207622223 2016-02-03 03:29:00                 FALSE               NA 2016-02-03
6   u:-207622223 2016-02-03 03:29:00                 FALSE           brand1 2016-02-03
7   u:-488024152 2016-02-03 11:36:00                 FALSE               NA 2016-02-03
8   u:-488024152 2016-02-03 11:36:00                 FALSE           google 2016-02-03
9   u:1712503559 2016-02-03 19:00:00                 FALSE               NA 2016-02-03
10  u:1712503559 2016-02-03 19:00:00                 FALSE           google 2016-02-03
# ... with 46 more rows
…
